<?xml version="1.0" encoding="UTF-8"?>
<svg width="624px" height="272px" viewBox="0 0 624 272" version="1.1" xmlns="http://www.w3.org/2000/svg" xmlns:xlink="http://www.w3.org/1999/xlink">
    <!-- Generator: Sketch 47.1 (45422) - http://www.bohemiancoding.com/sketch -->
    <title>icon__path--right</title>
    <desc>Created with Sketch.</desc>
    <defs></defs>
    <g id="Welcome" stroke="none" stroke-width="1" fill="none" fill-rule="evenodd" stroke-dasharray="16,25,6,31" stroke-linecap="round" opacity="0.3" stroke-linejoin="bevel">
        <g id="-g-SGA3-Copy" transform="translate(-412.000000, -1373.000000)" stroke="#00D7C4" stroke-width="8">
            <g id="icon__process" transform="translate(74.000000, 1134.000000)">
                <g id="icon__note" transform="translate(342.000000, 0.000000)">
                    <path d="M615.17714,243.579533 C583.638019,334.715818 479.766105,379.4033 303.561399,377.64198 C127.356692,375.88066 26.1695594,418.806822 0,506.420467" id="icon__path--right"></path>
                </g>
            </g>
        </g>
    </g>
</svg>