<?xml version="1.0" encoding="utf-8"?>
<!-- Generator: Adobe Illustrator 19.0.0, SVG Export Plug-In . SVG Version: 6.00 Build 0)  -->
<svg version="1.1" id="Layer_1" xmlns="http://www.w3.org/2000/svg" xmlns:xlink="http://www.w3.org/1999/xlink" x="0px" y="0px"
	 viewBox="0 0 437 70" style="enable-background:new 0 0 437 70;" xml:space="preserve">
<style type="text/css">
	.st0{fill:#FFFFFF;}
</style>
<g id="XMLID_1_">
	<path id="XMLID_3_" class="st0" d="M43.6,14.9c-0.5,0.7-1,1.3-1.5,1.7c-0.5,0.4-1.2,0.6-2,0.6c-0.7,0-1.5-0.2-2.3-0.7
		c-0.8-0.4-1.7-1-2.8-1.5c-1-0.6-2.2-1.1-3.6-1.5c-1.3-0.4-2.8-0.7-4.6-0.7c-2.9,0-5.1,0.6-6.6,1.9c-1.4,1.3-2.2,2.9-2.2,5.1
		c0,1.4,0.4,2.5,1.3,3.4c0.9,0.9,2,1.7,3.4,2.3c1.4,0.6,3,1.2,4.8,1.8c1.8,0.5,3.7,1.1,5.5,1.8c1.9,0.7,3.7,1.4,5.5,2.3
		c1.8,0.9,3.4,2,4.8,3.4c1.4,1.4,2.5,3.1,3.4,5.1c0.9,2,1.3,4.4,1.3,7.2c0,3.1-0.5,6.1-1.6,8.8c-1.1,2.7-2.7,5.1-4.7,7.1
		c-2.1,2-4.6,3.6-7.6,4.8c-3,1.2-6.4,1.7-10.3,1.7c-2.1,0-4.2-0.2-6.4-0.7c-2.2-0.4-4.3-1-6.3-1.8c-2-0.8-4-1.7-5.8-2.8
		c-1.8-1.1-3.4-2.3-4.7-3.6l4.6-7.3c0.3-0.6,0.8-1,1.4-1.3c0.6-0.3,1.3-0.5,2-0.5c0.9,0,1.9,0.3,2.8,0.9c0.9,0.6,2,1.2,3.2,2
		c1.2,0.7,2.6,1.4,4.1,2c1.5,0.6,3.4,0.9,5.5,0.9c2.8,0,5.1-0.6,6.6-1.9c1.6-1.3,2.4-3.2,2.4-6c0-1.6-0.4-2.9-1.3-3.9
		c-0.9-1-2-1.8-3.4-2.5c-1.4-0.6-3-1.2-4.8-1.7c-1.8-0.5-3.6-1-5.5-1.6c-1.9-0.6-3.7-1.3-5.5-2.2c-1.8-0.9-3.4-2-4.8-3.5
		c-1.4-1.4-2.5-3.2-3.4-5.4c-0.9-2.2-1.3-4.8-1.3-8c0-2.5,0.5-5,1.5-7.4c1-2.4,2.5-4.6,4.5-6.5c2-1.9,4.4-3.4,7.3-4.5
		c2.9-1.1,6.2-1.7,9.9-1.7c2.1,0,4.1,0.2,6.1,0.5c2,0.3,3.8,0.8,5.6,1.4c1.8,0.6,3.4,1.4,4.9,2.3c1.5,0.9,2.9,1.9,4.1,3L43.6,14.9z"
		/>
	<path id="XMLID_5_" class="st0" d="M110,1.2v12.4h-19v55.2H75.2V13.6h-19V1.2H110z"/>
	<path id="XMLID_7_" class="st0" d="M149.3,56.4c2.1,0,4-0.3,5.6-1c1.7-0.7,3.1-1.7,4.2-3c1.1-1.3,2-2.9,2.6-4.8
		c0.6-1.9,0.9-4,0.9-6.4V1.2h15.7v40.1c0,4.1-0.7,8-2,11.4s-3.3,6.5-5.8,9c-2.5,2.5-5.6,4.5-9.1,5.9c-3.6,1.4-7.6,2.1-12.1,2.1
		c-4.5,0-8.6-0.7-12.2-2.1c-3.6-1.4-6.6-3.3-9.1-5.9c-2.5-2.5-4.4-5.5-5.8-9c-1.3-3.5-2-7.3-2-11.4V1.2h15.7v40
		c0,2.4,0.3,4.5,0.9,6.4s1.5,3.5,2.6,4.8c1.1,1.3,2.5,2.3,4.2,3C145.3,56.1,147.2,56.4,149.3,56.4z"/>
	<path id="XMLID_9_" class="st0" d="M242.3,1.2v12.4h-19v55.2h-15.7V13.6h-19V1.2H242.3z"/>
	<path id="XMLID_11_" class="st0" d="M297,1.2v12.1h-27.8V29h21.3v11.6h-21.3v16.1H297v12.1h-43.6V1.2H297z"/>
	<path id="XMLID_13_" class="st0" d="M326.3,43.8v25h-15.7V1.2h22c4.9,0,9.1,0.5,12.5,1.5c3.5,1,6.3,2.4,8.5,4.2
		c2.2,1.8,3.8,3.9,4.8,6.4c1,2.4,1.5,5.1,1.5,8c0,2.2-0.3,4.3-0.9,6.2c-0.6,2-1.5,3.8-2.6,5.4c-1.2,1.7-2.6,3.1-4.3,4.4
		c-1.7,1.3-3.6,2.4-5.8,3.2c1.1,0.5,2,1.2,2.9,2c0.9,0.8,1.7,1.7,2.4,2.8l14.4,23.5h-14.2c-2.6,0-4.5-1-5.7-3l-11.2-19.6
		c-0.5-0.9-1.1-1.5-1.7-1.9s-1.6-0.6-2.8-0.6H326.3z M326.3,33h6.3c2.1,0,4-0.3,5.5-0.8c1.5-0.5,2.7-1.3,3.7-2.3
		c1-1,1.7-2.1,2.1-3.4c0.4-1.3,0.6-2.7,0.6-4.2c0-3-1-5.3-2.9-7s-4.9-2.5-9-2.5h-6.3V33z"/>
	<path id="XMLID_16_" class="st0" d="M387,1.3c0.5,0.1,0.9,0.2,1.3,0.3c0.4,0.2,0.7,0.4,1.1,0.7c0.3,0.3,0.7,0.7,1.2,1.3l32.1,40.6
		c-0.1-1.3-0.2-2.6-0.3-3.8c-0.1-1.2-0.1-2.4-0.1-3.5V1.2h13.8v67.7h-8.2c-1.2,0-2.2-0.2-3.1-0.6c-0.8-0.4-1.6-1.1-2.4-2l-31.9-40.3
		c0.1,1.2,0.2,2.3,0.2,3.5c0.1,1.1,0.1,2.2,0.1,3.2v36.3H377V1.2h8.3C385.9,1.2,386.5,1.2,387,1.3z"/>
</g>
</svg>
